{"photos":{"page":1,"pages":26763,"perpage":20,"total":"535244","photo":[{"id":"31642905188","owner":"160049061@N07","secret":"8050459aa1","server":"1937","farm":2,"title":"Signs That Say You Need Immediate Auto Servicing From Expert","ispublic":1,"isfriend":0,"isfamily":0},{"id":"45515411591","owner":"143158169@N06","secret":"1688225fd1","server":"1960","farm":2,"title":"Locksmith Tampa","ispublic":1,"isfriend":0,"isfamily":0},{"id":"30574053607","owner":"96899419@N06","secret":"2a8c76f659","server":"1914","farm":2,"title":"1960 Chrysler Corporation Wgons Plymouth Valiant Dodge Dodge Dart Chrysler Page 1 USA Original Magazine Advertisement","ispublic":1,"isfriend":0,"isfamily":0},{"id":"31642867758","owner":"156674004@N06","secret":"ff6a2428a8","server":"1960","farm":2,"title":"Great Britain cars-Hire taxi from London Airport","ispublic":1,"isfriend":0,"isfamily":0},{"id":"45515364441","owner":"143204126@N02","secret":"b26619cefc","server":"1921","farm":2,"title":"More 2018 Vintage Drag Racing Action Photos From Little River Dragway In Texas","ispublic":1,"isfriend":0,"isfamily":0},{"id":"30574028997","owner":"143204126@N02","secret":"3a945ee051","server":"1948","farm":2,"title":"Project Raven Imperial: The Last Piece To The Puzzle Is Always A Pain In The\u2026","ispublic":1,"isfriend":0,"isfamily":0},{"id":"43698122340","owner":"143204126@N02","secret":"46ec092713","server":"1915","farm":2,"title":"More October 2018 Pomona Swap Meet Photos: Cool Cars Shining Under Gray Skies","ispublic":1,"isfriend":0,"isfamily":0},{"id":"31642848208","owner":"144128436@N02","secret":"fd3fdb1a76","server":"1933","farm":2,"title":"Towards Lane End past Horndon, Devon","ispublic":1,"isfriend":0,"isfamily":0},{"id":"45515344171","owner":"158197155@N05","secret":"00f8abd1b6","server":"1977","farm":2,"title":"Who Pays for Medical Costs Following a Car Accident","ispublic":1,"isfriend":0,"isfamily":0},{"id":"44601212065","owner":"165373836@N06","secret":"c1ae809e27","server":"1937","farm":2,"title":"ERZURUM ADL \u00c7AR RENTAL","ispublic":1,"isfriend":0,"isfamily":0},{"id":"45464319162","owner":"96899419@N06","secret":"7f53a2e900","server":"1949","farm":2,"title":"1960 Chrysler Corporation Wgons Plymouth Valiant Dodge Dodge Dart Chrysler Pge 2 USA Original Magazine Advertisement","ispublic":1,"isfriend":0,"isfamily":0},{"id":"30573912647","owner":"156674004@N06","secret":"fcffca8cd5","server":"1948","farm":2,"title":"cheap London Luton airport taxi fare","ispublic":1,"isfriend":0,"isfamily":0},{"id":"31642705598","owner":"60333237@N08","secret":"1f8cb9e46b","server":"1926","farm":2,"title":"","ispublic":1,"isfriend":0,"isfamily":0},{"id":"44601163685","owner":"157838784@N05","secret":"1d8833a69b","server":"1962","farm":2,"title":"Dash Cam Car DVR Dashboard Camera Recorder with Built-In WiFi & GPS, 4K FHD, APP Support, G-Sensor, 2.4\u2033 LCD, 150 Degree Wide-Angle Lens, Loop Recording, Great Night Vision, Parking Monitor Review","ispublic":1,"isfriend":0,"isfamily":0}]},"stat":"ok"}
